<svg width="104" height="93" viewBox="0 0 104 93" fill="none" xmlns="http://www.w3.org/2000/svg">
<circle cx="46.5" cy="46.5" r="46.5" fill="#F4F4F4"/>
<path d="M46.712 71L21 45.1277L24.8913 41.4823L46.712 63.5L100.109 9.5L104 13.3546L46.712 71Z" fill="#47DC68"/>
</svg>
