<svg width="14" height="14" viewBox="0 0 14 14" fill="none" xmlns="http://www.w3.org/2000/svg">
<path d="M0 1.13843L1.13818 0.000219496L14 12.8615L12.8618 13.9997L0 1.13843Z" fill="#005CBB"/>
<path d="M0 12.8618L12.8614 -8.10047e-06L13.9996 1.13817L1.13821 14L0 12.8618Z" fill="#005CBB"/>
</svg>
