<svg width="13" height="14" viewBox="0 0 13 14" fill="none" xmlns="http://www.w3.org/2000/svg">
	<g clip-path="url(#clip0)">
		<path
			d="M8.9375 0.907959H4.0625C1.81919 0.907959 0 2.72715 0 4.97046V9.84546C0 12.0888 1.81919 13.908 4.0625 13.908H8.9375C11.1808 13.908 13 12.0888 13 9.84546V4.97046C13 2.72715 11.1808 0.907959 8.9375 0.907959ZM11.7812 9.84546C11.7812 11.4136 10.5056 12.6892 8.9375 12.6892H4.0625C2.49437 12.6892 1.21875 11.4136 1.21875 9.84546V4.97046C1.21875 3.40233 2.49437 2.12671 4.0625 2.12671H8.9375C10.5056 2.12671 11.7812 3.40233 11.7812 4.97046V9.84546Z"
			fill="#2F4B68" />
		<path
			d="M6.5 4.15796C4.70519 4.15796 3.25 5.61315 3.25 7.40796C3.25 9.20277 4.70519 10.658 6.5 10.658C8.29481 10.658 9.75 9.20277 9.75 7.40796C9.75 5.61315 8.29481 4.15796 6.5 4.15796ZM6.5 9.43921C5.38037 9.43921 4.46875 8.52758 4.46875 7.40796C4.46875 6.28752 5.38037 5.37671 6.5 5.37671C7.61963 5.37671 8.53125 6.28752 8.53125 7.40796C8.53125 8.52758 7.61963 9.43921 6.5 9.43921Z"
			fill="#2F4B68" />
		<path
			d="M9.99373 4.34733C10.2329 4.34733 10.4268 4.15344 10.4268 3.91426C10.4268 3.67509 10.2329 3.4812 9.99373 3.4812C9.75456 3.4812 9.56067 3.67509 9.56067 3.91426C9.56067 4.15344 9.75456 4.34733 9.99373 4.34733Z"
			fill="#2F4B68" />
	</g>
	<defs>
		<clipPath id="clip0">
			<rect width="13" height="13" fill="white" transform="translate(0 0.907959)" />
		</clipPath>
	</defs>
</svg>
