<svg width="14" height="14" viewBox="0 0 14 14" fill="none" xmlns="http://www.w3.org/2000/svg">
<path d="M3.03927 13.82H0V4.39727H3.03927V13.82ZM1.52024 3.14091C0.67958 3.14091 0 2.43672 0 1.56983C0 0.702936 0.680796 0 1.52024 0C2.35786 0 3.03927 0.704192 3.03927 1.56983C3.03927 2.43672 2.35786 3.14091 1.52024 3.14091ZM13.9806 13.82H11.0587V9.23427C11.0587 8.14061 11.0386 6.73411 9.53966 6.73411C8.0182 6.73411 7.78417 7.92514 7.78417 9.15512V13.82H4.86283V4.39036H7.66747V5.67876H7.70698C8.09722 4.93751 9.05094 4.15605 10.4733 4.15605C13.4336 4.15605 13.9806 6.10907 13.9806 8.64818V13.82Z" fill="#2F4B68"/>
</svg>
