<svg width="40" height="38" viewBox="0 0 40 38" fill="none" xmlns="http://www.w3.org/2000/svg">
<path d="M19.4378 37.3454C18.0745 37.3454 16.7118 37.0707 15.45 36.5218L9.41602 33.8988C7.23307 32.9493 4.92495 32.3479 2.5559 32.111L0.574383 31.9129C0.248145 31.8804 0 31.606 0 31.2783V25.0626C0 24.9247 0.0448851 24.7904 0.127722 24.6802C0.275879 24.482 3.82728 19.8424 9.25217 21.0496C12.3033 21.7276 14.7599 22.9964 16.2834 23.9416C17.3895 24.6276 18.6861 24.99 20.033 24.99H26.0669C27.1069 24.99 28.0211 25.5403 28.5323 26.3657L33.7291 20.3785C34.7367 19.033 36.385 18.209 38.1107 18.209H38.499C38.7147 18.209 38.9154 18.3178 39.0329 18.4981C39.1507 18.6783 39.1694 18.9064 39.0829 19.1035L34.3827 29.7854C33.3551 32.1216 31.2626 33.8864 28.7859 34.5056L27.959 34.7122L23.1487 36.6364C21.9649 37.1097 20.7011 37.3454 19.4378 37.3454ZM1.27576 30.701L2.68289 30.8418C5.18368 31.0918 7.62025 31.7271 9.92508 32.7292L15.9587 35.3522C18.0803 36.2748 20.5271 36.3109 22.6754 35.4515L27.5251 33.5116C27.5521 33.501 27.5795 33.4923 27.6076 33.4853L28.4765 33.2678C30.5737 32.7434 32.3454 31.2495 33.215 29.2716L37.502 19.5286C36.4044 19.6903 35.3943 20.2818 34.7214 21.1788L28.9644 27.8137C28.9651 27.8385 28.9655 27.863 28.9655 27.8882C28.9655 29.4862 27.6653 30.7864 26.0673 30.7864H17.6486C16.5542 30.7864 15.4726 30.9619 14.4344 31.3078L14.2001 30.713L14.002 30.1069L14.0344 30.0963C15.1996 29.708 16.4166 29.5106 17.6486 29.5106H26.0673C26.9617 29.5106 27.6901 28.7826 27.6901 27.8878C27.6901 26.993 26.9621 26.265 26.0673 26.265H20.0333C18.4485 26.265 16.9195 25.8362 15.6116 25.025C14.1724 24.1321 11.8522 22.934 8.97629 22.2943C4.86803 21.3831 1.91181 24.536 1.27612 25.2881V30.701H1.27576Z" fill="#FA074C"/>
<path d="M25.1174 18.0645C24.1365 18.0645 23.0366 17.7617 21.8258 17.1563C21.6791 17.0825 21.566 16.9548 21.5105 16.8005C21.4613 16.6622 20.3216 13.3841 22.1327 10.9599C23.449 9.19773 25.9239 8.40403 29.4928 8.60291C29.8183 8.62079 30.0777 8.88171 30.0938 9.20795C30.1066 9.4612 30.3697 15.4389 27.3215 17.4292C26.6734 17.8529 25.937 18.0645 25.1174 18.0645ZM22.6392 16.1327C24.3146 16.9183 25.6538 16.9953 26.6245 16.3615C28.4319 15.1809 28.8228 11.6766 28.8323 9.85276C26.0359 9.78452 24.1321 10.4147 23.1545 11.723C21.9911 13.2808 22.4433 15.4236 22.6392 16.1327Z" fill="#FA074C"/>
<path d="M15.3641 9.7085C14.2332 9.7085 12.9286 9.46619 11.7901 8.63235C9.8589 7.21719 8.97142 4.52299 9.15169 0.624922C9.16701 0.299049 9.42538 0.0370368 9.75125 0.0176961C10.0271 0.00200456 16.557 -0.346493 18.7542 2.95165C19.7774 4.48686 19.6935 6.49757 18.5057 8.92903C18.4334 9.07682 18.3072 9.19104 18.1528 9.2476C18.067 9.27935 16.8697 9.7085 15.3641 9.7085ZM17.9327 8.64913H17.9389H17.9327ZM10.407 1.27265C10.3519 4.3949 11.0697 6.52311 12.5436 7.60328C14.3084 8.89618 16.7179 8.34662 17.4755 8.12584C18.3422 6.24505 18.4155 4.7434 17.693 3.65886C16.3501 1.64305 12.4119 1.24893 10.407 1.27265Z" fill="#FA074C"/>
<path d="M20.3445 26.041C20.3244 26.041 20.3044 26.0399 20.2839 26.0381C19.9442 26.006 19.6898 25.7122 19.707 25.371C19.7446 24.6207 19.8088 23.9091 19.896 23.2348C20.1613 18.7214 20.0245 8.21104 13.3793 5.30336C13.0567 5.16214 12.9093 4.78627 13.0505 4.46331C13.1914 4.14109 13.5683 3.99403 13.8905 4.13489C17.8065 5.84818 20.2701 10.1137 21.0134 16.4703C21.0802 17.0399 21.1302 17.6015 21.1674 18.1485C22.9175 13.7261 25.5949 12.1635 25.7544 12.0741C26.061 11.9007 26.45 12.0109 26.6229 12.3171C26.7948 12.6236 26.6868 13.0116 26.3813 13.1845C26.3138 13.2239 22.2081 15.6879 21.1776 23.2862C21.0992 24.5861 20.986 25.4148 20.9754 25.4907C20.9313 25.8089 20.6594 26.041 20.3445 26.041Z" fill="#FA074C"/>
</svg>
